Homework02
…
Use a one-line statement to filter the dataset to include just movies from 1920 to 1979 and movies that are between 1 and 3 hours long (runtimeMinutes < 240), and add a new column that codes the startYear into a new variable, decade (20s, 30s, 70s). If you do this correctly, there should be 5651 movies remaining in the dataset.

new_d <- d %>% filter(startYear >= 1920 & startYear <= 1979) %>% 
  filter(runtimeMinutes <= 180 & runtimeMinutes >= 60) %>% 
  mutate(decade = case_when(startYear >= 1920 & startYear < 1930 ~ "20s",
                          startYear >= 1930 & startYear < 1940 ~ "30s",
                          startYear >= 1940 & startYear < 1950 ~ "40s",
                          startYear >= 1950 & startYear < 1960 ~ "50s",
                          startYear >= 1960 & startYear < 1970 ~ "60s",
                          startYear >= 1970 & startYear < 1980 ~ "70s"))
new_d

## # A tibble: 5,651 x 11
##    tconst titleType primaryTitle startYear runtimeMinutes genres averageRating
##    <chr>  <chr>     <chr>            <dbl>          <dbl> <chr>          <dbl>
##  1 tt001 movie     The Cabinet      1920             76 Fanta           8.1
##  2 tt001 movie     Leaves From      1920            167 Drama            6.7
##  3 tt001 movie     Dr. Jekyll       1920             82 Drama           7  
##  4 tt001 movie     The Golem         1920             76 Fanta           7.2
##  5 tt001 movie     The Last of      1920             73 Actio           6.7
##  6 tt001 movie     The Mark of      1920            107 Adven           7.1
##  7 tt001 movie     The Penalty       1920             90 Crime           7.4
##  8 tt001 movie     The Saphead       1920             77 Comedy           6.2
##  9 tt001 movie     Way Down Ea      1920            145 Drama           7.4
## 10 tt001 movie     Why Change       1920             90 Comed           6.7
## #  with 5,641 more rows, and 4 more variables: numVotes <dbl>, nconst <chr>,
## #   director <chr>, decade <chr>
…
